simulation/qsim/UpDown.msim.vcd
$comment
	File created using the following command:
		vcd file UpDown.msim.vcd -direction
$end
$date
	Fri Dec 07 15:58:10 2018
$end
$version
	ModelSim Version 10.5b
$end
$timescale
	1ps
$end

$scope module UpDown_vlg_vec_tst $end
$var reg 1 ! DOWNBUTTON $end
$var reg 1 " POWER $end
$var reg 1 # UPBOTTON $end
$var wire 1 $ DOWN $end
$var wire 1 % UP $end

$scope module i1 $end
$var wire 1 & gnd $end
$var wire 1 ' vcc $end
$var wire 1 ( unknown $end
$var tri1 1 ) devclrn $end
$var tri1 1 * devpor $end
$var tri1 1 + devoe $end
$var wire 1 , UP~output_o $end
$var wire 1 - DOWN~output_o $end
$var wire 1 . UPBOTTON~input_o $end
$var wire 1 / DOWNBUTTON~input_o $end
$var wire 1 0 POWER~input_o $end
$var wire 1 1 inst5~combout $end
$var wire 1 2 inst6~combout $end
$upscope $end
$upscope $end
$enddefinitions $end
#0
$dumpvars
0!
0"
0#
0$
0%
0&
1'
x(
1)
1*
1+
0,
0-
0.
0/
00
01
02
$end
#150000
1#
1.
#240000
1!
1/
#350000
0#
0.
#560000
1#
1.
#960000
0#
0.
#1000000
1"
0!
10
0/
#1400000
1!
1/
12
1-
1$
#1920000
0!
0/
02
0-
0$
#2000000
1#
1.
11
1,
1%
#2600000
0#
0.
01
0,
0%
#2680000
1!
1#
1/
1.
#4080000
0!
0#
0/
0.
